%YAML 1.1
%TAG !u! tag:unity3d.com,2011:
--- !u!1045 &1
EditorBuildSettings:
  m_ObjectHideFlags: 0
  serializedVersion: 2
  m_Scenes: []
  m_configObjects:
    com.unity.xr.arcore.PlayerSettings: {fileID: 11400000, guid: 4ca4b63a953a75d4ebf68d40deb6067f,
      type: 2}
    com.unity.xr.arkit.PlayerSettings: {fileID: 11400000, guid: 59a5e33bb52de2d4ba673b158baacc06,
      type: 2}
    com.unity.xr.management.arcore_loader: {fileID: 11400000, guid: ef1e26f87f844b4418345958802febf1,
      type: 2}
    com.unity.xr.management.arkit_loader: {fileID: 11400000, guid: ede7e5a0cbec6a641bfe44a657b7304b,
      type: 2}
